[
    {
        "DayNum": "0",
        "DayDate": "2022-07-21",
        "DayName": "Thursday",
        "Cities": [
            {
                "City": "UPPSALA",
                "Distance": "0",
                "Url": "https://goo.gl/maps/dzmBWF341R9Ps4fS9",
                "Icon": "map-marked-alt",
                "Button": "btn-warning",
                "Locations": [
                    {
                        "Location": "Scandic Uppsala",
                        "Type": "Hotel",
                        "Icon": "bed",
                        "Button": "btn-primary",
                        "Url": "https://www.scandichotels.com/hotels/sweden/uppsala/scandic-uppsala-nord"
                    }
                ]
            }
        ]
    },
    {
        "DayNum": "1",
        "DayDate": "2022-07-23",
        "DayName": "Saturday",
        "Cities": [
            {
                "City": "ÖSTERVÅLA",
                "Distance": "59",
                "Url": "https://goo.gl/maps/mUxFy63gb8KmVJ9W8",
                "Icon": "map-marked-alt",
                "Button": "btn-warning",
                "Locations": [
                    {
                        "Location": "COOP (8-21)",
                        "Type": "Food",
                        "Icon": "shopping-basket",
                        "Button": "btn-success",
                        "Url": "https://goo.gl/maps/J1ZTGCgSf9DePo968"
                    },
                    {
                        "Location": "Pizza Cypern (11-20)",
                        "Type": "Food",
                        "Icon": "pizza-slice",
                        "Button": "btn-success",
                        "Url": "https://goo.gl/maps/Jq6FoaHVAf4MPEpEA"
                    }
                ]
            },
            {
                "City": "GYSINGE",
                "Distance": "86",
                "Url": "https://goo.gl/maps/XxkmeMaxgDi7FURA6",
                "Icon": "map-marked-alt",
                "Button": "btn-warning",
                "Locations": [
                    {
                        "Location": "Control #1: Anywhere",
                        "Type": "Control",
                        "Icon": "pencil-alt",
                        "Button": "btn-danger",
                        "Url": "https://goo.gl/maps/XxkmeMaxgDi7FURA6"
                    },
                    {
                        "Location": "Gysinge Brukshandel (6-22)",
                        "Type": "Food",
                        "Icon": "shopping-basket",
                        "Button": "btn-success",
                        "Url": "https://g.page/gysinge-upplevelser-ab?share"
                    }
                ]
            },
            {
                "City": "HORNDAL",
                "Distance": "116",
                "Url": "https://goo.gl/maps/mUQVKpieyQnPvEWw5",
                "Icon": "map-marked-alt",
                "Button": "btn-warning",
                "Locations": [
                    {
                        "Location": "ICA (8-20)",
                        "Type": "Food",
                        "Icon": "shopping-basket",
                        "Button": "btn-success",
                        "Url": "https://goo.gl/maps/UbsLcGmTznx3yR976"
                    },
                    {
                        "Location": "Amigo Grill (11-21)",
                        "Type": "Food",
                        "Icon": "pizza-slice",
                        "Button": "btn-success",
                        "Url": "https://goo.gl/maps/syPdio2aHyQmgH5a7"
                    }
                ]
            },
            {
                "City": "TORSÅNG",
                "Distance": "183",
                "Url": "https://goo.gl/maps/YZkbyzjvrDAtxeEw5",
                "Icon": "map-marked-alt",
                "Button": "btn-warning",
                "Locations": [
                    {
                        "Location": "Control #2: Anywhere",
                        "Type": "Control",
                        "Icon": "pencil-alt",
                        "Button": "btn-danger",
                        "Url": "https://goo.gl/maps/YZkbyzjvrDAtxeEw5"
                    },
                    {
                        "Location": "Torsång Pizzeria (11-21)",
                        "Type": "Food",
                        "Icon": "pizza-slice",
                        "Button": "btn-success",
                        "Url": "https://goo.gl/maps/BQuvQ6TzToPG4rPm6"
                    },
                    {
                        "Location": "Torsång Café (10-16)",
                        "Type": "Food",
                        "Icon": "mug-hot",
                        "Button": "btn-success",
                        "Url": "https://goo.gl/maps/ZZvTxCFsKgrENNA8A"
                    }
                ]
            },
            {
                "City": "LEKSAND",
                "Distance": "239",
                "Url": "https://goo.gl/maps/z5rdgCHm4B4xaWVn6",
                "Icon": "map-marked-alt",
                "Button": "btn-warning",
                "Locations": [
                    {
                        "Location": "Control #3: Manned",
                        "Type": "Control",
                        "Icon": "pencil-alt",
                        "Button": "btn-danger",
                        "Url": "https://goo.gl/maps/z5rdgCHm4B4xaWVn6"
                    },
                    {
                        "Location": "COOP (8-21)",
                        "Type": "Food",
                        "Icon": "shopping-basket",
                        "Button": "btn-success",
                        "Url": "https://goo.gl/maps/fp4YgUeE89pDANnf7"
                    },
                    {
                        "Location": "Fred's Burgers (12-02)",
                        "Type": "Food",
                        "Icon": "hamburger",
                        "Button": "btn-success",
                        "Url": "https://g.page/FredsBurgerLeksand?share"
                    }
                ]
            },
            {
                "City": "MORA",
                "Distance": "297",
                "Url": "https://goo.gl/maps/cNcUfjz8FKh1htYS7",
                "Icon": "map-marked-alt",
                "Button": "btn-warning",
                "Locations": [
                    {
                        "Location": "ICA (7-22)",
                        "Type": "Food",
                        "Icon": "shopping-basket",
                        "Button": "btn-success",
                        "Url": "https://goo.gl/maps/wog1K9Z8YDBtjrqLA"
                    },
                    {
                        "Location": "Pizzeria Torino (11-03)",
                        "Type": "Food",
                        "Icon": "pizza-slice",
                        "Button": "btn-success",
                        "Url": "https://g.page/pizzeriatorinooo?share"
                    },
                    {
                        "Location": "OKQ8 (8-22)",
                        "Type": "Food",
                        "Icon": "mug-hot",
                        "Button": "btn-success",
                        "Url": "https://goo.gl/maps/Dzw93dspp5MMWmAf7"
                    }
                ]
            },
            {
                "City": "ÄLVDALEN",
                "Distance": "337",
                "Url": "https://goo.gl/maps/t4SL2TpkjEGnSDPD7",
                "Icon": "map-marked-alt",
                "Button": "btn-warning",
                "Locations": [
                    {
                        "Location": "Control #4: Manned",
                        "Type": "Control",
                        "Icon": "pencil-alt",
                        "Button": "btn-danger",
                        "Url": "https://goo.gl/maps/t4SL2TpkjEGnSDPD7"
                    },
                    {
                        "Location": "Älvdalens Camping",
                        "Type": "Hotel",
                        "Icon": "bed",
                        "Button": "btn-primary",
                        "Url": "https://www.alvdalencamping.se/"
                    },
                    {
                        "Location": "ICA (8-21)",
                        "Type": "Food",
                        "Icon": "shopping-basket",
                        "Button": "btn-success",
                        "Url": "https://goo.gl/maps/aTPaaUDP54QxVKbr7"
                    },
                    {
                        "Location": "Pizza (11-22)",
                        "Type": "Food",
                        "Icon": "pizza-slice",
                        "Button": "btn-success",
                        "Url": "https://goo.gl/maps/bTFBo7csCstPAnc7A"
                    }
                ]
            }
        ]
    },
    {
        "DayNum": "2",
        "DayDate": "2022-07-24",
        "DayName": "Sunday",
        "Cities": [
            {
                "City": "SÄRNA",
                "Distance": "429",
                "Url": "https://goo.gl/maps/bbYL3gMc2FwKeN8K6",
                "Icon": "map-marked-alt",
                "Button": "btn-warning",
                "Locations": [
                    {
                        "Location": "Control #5: Anywhere",
                        "Type": "Control",
                        "Icon": "pencil-alt",
                        "Button": "btn-danger",
                        "Url": "https://goo.gl/maps/bbYL3gMc2FwKeN8K6"
                    },
                    {
                        "Location": "COOP (9-19)",
                        "Type": "Food",
                        "Icon": "shopping-basket",
                        "Button": "btn-success",
                        "Url": "https://goo.gl/maps/csXyf5zMWWqYnjMe8"
                    },
                    {
                        "Location": "Pizza (11-21)",
                        "Type": "Food",
                        "Icon": "pizza-slice",
                        "Button": "btn-success",
                        "Url": "https://goo.gl/maps/PLdZLPrEUnj95Q5EA"
                    },
                    {
                        "Location": "OKQ8 (7-21)",
                        "Type": "Food",
                        "Icon": "mug-hot",
                        "Button": "btn-success",
                        "Url": "https://goo.gl/maps/31wPZVeo9jmQvKMR7"
                    }
                ]
            },
            {
                "City": "IDRE",
                "Distance": "451",
                "Url": "https://goo.gl/maps/s44WEetCThuSqHdt7",
                "Icon": "map-marked-alt",
                "Button": "btn-warning",
                "Locations": [
                    {
                        "Location": "ICA (11-20)",
                        "Type": "Food",
                        "Icon": "shopping-basket",
                        "Button": "btn-success",
                        "Url": "https://goo.gl/maps/YD243Lzej8wzmqic6"
                    },
                    {
                        "Location": "Idregrillen (11-22)",
                        "Type": "Food",
                        "Icon": "hamburger",
                        "Button": "btn-success",
                        "Url": "https://goo.gl/maps/1rWXxTyRbzJL8DPt6"
                    },
                    {
                        "Location": "Gulf (8-21)",
                        "Type": "Food",
                        "Icon": "mug-hot",
                        "Button": "btn-success",
                        "Url": "https://goo.gl/maps/zWXu9Dybc9rvzcRe7"
                    }
                ]
            },
            {
                "City": "DREVSJØ",
                "Distance": "496",
                "Url": "https://goo.gl/maps/BhJLX2LPRMiceWdv7",
                "Icon": "map-marked-alt",
                "Button": "btn-warning",
                "Locations": [
                    {
                        "Location": "Joker (12-16)",
                        "Type": "Food",
                        "Icon": "shopping-basket",
                        "Button": "btn-success",
                        "Url": "https://goo.gl/maps/Q19WyshrzhxNkQcp7"
                    }
                ]
            },
            {
                "City": "FEMUNDTUNET",
                "Distance": "503",
                "Url": "https://goo.gl/maps/GkzjCKSF6PFgLN1Z6",
                "Icon": "map-marked-alt",
                "Button": "btn-warning",
                "Locations": [
                    {
                        "Location": "Control #6: Manned",
                        "Type": "Control",
                        "Icon": "pencil-alt",
                        "Button": "btn-danger",
                        "Url": "https://goo.gl/maps/GkzjCKSF6PFgLN1Z6"
                    }
                ]
            },
            {
                "City": "TOLGA",
                "Distance": "593",
                "Url": "https://goo.gl/maps/skedzQm2nBjPXhby6",
                "Icon": "map-marked-alt",
                "Button": "btn-warning",
                "Button": "btn-warning",
                "Locations": [
                    {
                        "Location": "Control #7: Anywhere",
                        "Type": "Control",
                        "Icon": "pencil-alt",
                        "Button": "btn-danger",
                        "Url": "https://goo.gl/maps/skedzQm2nBjPXhby6"
                    }
                ]
            },
            {
                "City": "RØROS",
                "Distance": "627",
                "Url": "https://goo.gl/maps/k8SMZDMKKj9jnRsG8",
                "Icon": "map-marked-alt",
                "Button": "btn-warning",
                "Button": "btn-warning",
                "Locations": [
                    {
                        "Location": "Control #8: Manned",
                        "Type": "Control",
                        "Icon": "pencil-alt",
                        "Button": "btn-danger",
                        "Url": "https://goo.gl/maps/k8SMZDMKKj9jnRsG8"
                    },
                    {
                        "Location": "Røros Hotell",
                        "Type": "Hotel",
                        "Icon": "bed",
                        "Button": "btn-primary",
                        "Url": "https://www.roroshotell.no/en/bath/"
                    },
                    {
                        "Location": "KIWI (10-20)",
                        "Type": "Food",
                        "Icon": "shopping-basket",
                        "Button": "btn-success",
                        "Url": "https://goo.gl/maps/38NsZNoe3k3TvZ5m7"
                    },
                    {
                        "Location": "Freddy's Diner (13-22)",
                        "Type": "Food",
                        "Icon": "hamburger",
                        "Button": "btn-success",
                        "Url": "https://goo.gl/maps/Aejp7QtBsnrBQovs5"
                    }
                ]
            }
        ]
    },
    {
        "DayNum": "3",
        "DayDate": "2022-07-25",
        "DayName": "Monday",
        "Cities": [
            {
                "City": "HALTDALEN",
                "Distance": "677",
                "Url": "https://goo.gl/maps/wT4xfgajKNqVsEwb8",
                "Icon": "map-marked-alt",
                "Button": "btn-warning",
                "Locations": [
                    {
                        "Location": "COOP (8-21)",
                        "Type": "Food",
                        "Icon": "shopping-basket",
                        "Button": "btn-success",
                        "Url": "https://goo.gl/maps/YKAr5zsJqLxVhuDT7"
                    }
                ]
            },
            {
                "City": "STØREN",
                "Distance": "732",
                "Url": "https://goo.gl/maps/y4LfHwS6nsBbUfzt7",
                "Icon": "map-marked-alt",
                "Button": "btn-warning",
                "Locations": [
                    {
                        "Location": "Control #9: Anywhere",
                        "Type": "Control",
                        "Icon": "pencil-alt",
                        "Button": "btn-danger",
                        "Url": "https://goo.gl/maps/y4LfHwS6nsBbUfzt7"
                    },
                    {
                        "Location": "CircleK (24 h)",
                        "Type": "Food",
                        "Icon": "shopping-basket",
                        "Button": "btn-success",
                        "Url": "https://goo.gl/maps/w9PVAC8eepicNmPq9"
                    },
                    {
                        "Location": "Rema (7-23)",
                        "Type": "Food",
                        "Icon": "shopping-basket",
                        "Button": "btn-success",
                        "Url": "https://goo.gl/maps/Him35U5zQUrpw7ee8"
                    }
                ]
            },
            {
                "City": "TRONDHEIM",
                "Distance": "794",
                "Url": "https://goo.gl/maps/8EEQHJMLqhwyc6uN9",
                "Icon": "map-marked-alt",
                "Button": "btn-warning",
                "Locations": [
                    {
                        "Location": "Control #10: Manned",
                        "Type": "Control",
                        "Icon": "pencil-alt",
                        "Button": "btn-danger",
                        "Url": "https://goo.gl/maps/8EEQHJMLqhwyc6uN9"
                    },
                    {
                        "Location": "Rema (7-23)",
                        "Type": "Food",
                        "Icon": "shopping-basket",
                        "Button": "btn-success",
                        "Url": "https://goo.gl/maps/icRJRrt51LBNSJeH9"
                    },
                    {
                        "Location": "Super Burger (11-23)",
                        "Type": "Food",
                        "Icon": "shopping-basket",
                        "Button": "btn-success",
                        "Url": "https://goo.gl/maps/VN94e2n4MWxHfEF68"
                    }
                ]
            },
            {
                "City": "SELBU",
                "Distance": "862",
                "Url": "https://goo.gl/maps/A47YmXpHbJAZf15r9",
                "Icon": "map-marked-alt",
                "Button": "btn-warning",
                "Locations": [
                    {
                        "Location": "Kiwi (7-23)",
                        "Type": "Food",
                        "Icon": "shopping-basket",
                        "Button": "btn-success",
                        "Url": "https://goo.gl/maps/FdKHdXacUKL3kecJ6"
                    },
                    {
                        "Location": "Cafe & Pizza (11-22)",
                        "Type": "Food",
                        "Icon": "shopping-basket",
                        "Button": "btn-success",
                        "Url": "https://goo.gl/maps/UCn4GTZ8yGqdi58d6"
                    }
                ]
            },
            {
                "City": "GRESSLI",
                "Distance": "895",
                "Url": "https://goo.gl/maps/UzKdH4RoE1T5tpcY6",
                "Icon": "map-marked-alt",
                "Button": "btn-warning",
                "Locations": [
                    {
                        "Location": "Control #11: Manned",
                        "Type": "Control",
                        "Icon": "pencil-alt",
                        "Button": "btn-danger",
                        "Url": "https://goo.gl/maps/UzKdH4RoE1T5tpcY6"
                    }
                ]
            },
            {
                "City": "TYDAL",
                "Distance": "907",
                "Url": "https://goo.gl/maps/XPjtS3HB6Bvnhkhd8",
                "Icon": "map-marked-alt",
                "Button": "btn-warning",
                "Locations": [
                    {
                        "Location": "Kirkvollen Pilegrim",
                        "Type": "Hotel",
                        "Icon": "bed",
                        "Button": "btn-primary",
                        "Url": "https://kirkvollen.no/?lang=en"
                    },
                    {
                        "Location": "COOP (8-21)",
                        "Type": "Food",
                        "Icon": "shopping-basket",
                        "Button": "btn-success",
                        "Url": "https://goo.gl/maps/NknsEm4JuCtAQHfcA"
                    }
                ]
            }
        ]
    },
    {
        "DayNum": "4",
        "DayDate": "2022-07-26",
        "DayName": "Tuesday",
        "Cities": [
            {
                "City": "STUGUDAL",
                "Distance": "928",
                "Url": "https://goo.gl/maps/YWhjp8Z2WqyPmDCz9",
                "Icon": "map-marked-alt",
                "Button": "btn-warning",
                "Locations": [
                    {
                        "Location": "Stugudal Landhandel (9-18)",
                        "Type": "Food",
                        "Icon": "shopping-basket",
                        "Button": "btn-success",
                        "Url": "https://goo.gl/maps/1YfMDqPxuHkfV2vp8"
                    }
                ]
            },
            {
                "City": "BREKKEBYGD",
                "Distance": "969",
                "Url": "https://goo.gl/maps/ghTidXeH5b26WMDb9",
                "Icon": "map-marked-alt",
                "Button": "btn-warning",
                "Locations": [
                    {
                        "Location": "COOP (9-20)",
                        "Type": "Food",
                        "Icon": "shopping-basket",
                        "Button": "btn-success",
                        "Url": "https://goo.gl/maps/w9CXwLGZTXJWtoBE7"
                    }
                ]
            },
            {
                "City": "HAMRA",
                "Distance": "992",
                "Url": "https://g.page/hamralivs?share",
                "Icon": "map-marked-alt",
                "Button": "btn-warning",
                "Locations": [
                    {
                        "Location": "Hamra Livs (9-19)",
                        "Type": "Food",
                        "Icon": "shopping-basket",
                        "Button": "btn-success",
                        "Url": "https://g.page/hamralivs?share"
                    }
                ]
            },
            {
                "City": "TÄNNDALEN",
                "Distance": "999",
                "Url": "https://goo.gl/maps/eetZuty8dXH9oCt29",
                "Icon": "map-marked-alt",
                "Button": "btn-warning",
                "Locations": [
                    {
                        "Location": "Control #12: Manned",
                        "Type": "Control",
                        "Icon": "pencil-alt",
                        "Button": "btn-danger",
                        "Url": "https://goo.gl/maps/zKEAFA25gNodKEF56"
                    },
                    {
                        "Location": "Bybua Candy (10-19)",
                        "Type": "Food",
                        "Icon": "shopping-basket",
                        "Button": "btn-success",
                        "Url": "https://goo.gl/maps/zKEAFA25gNodKEF56"
                    }
                ]
            },
            {
                "City": "FUNÄSDALEN",
                "Distance": "1010",
                "Url": "https://goo.gl/maps/XqYsJVjagmHGnXwSA",
                "Icon": "map-marked-alt",
                "Button": "btn-warning",
                "Locations": [
                    {
                        "Location": "COOP (8-20)",
                        "Type": "Food",
                        "Icon": "shopping-basket",
                        "Button": "btn-success",
                        "Url": "https://goo.gl/maps/kzvXFyp6ni412R2j6"
                    },
                    {
                        "Location": "Pizza & Grill (11-20)",
                        "Type": "Food",
                        "Icon": "pizza-slice",
                        "Button": "btn-success",
                        "Url": "https://g.page/pizzeria-grill-milano?share"
                    }
                ]
            },
            {
                "City": "SÄRNA",
                "Distance": "1131",
                "Url": "https://goo.gl/maps/bbYL3gMc2FwKeN8K6",
                "Icon": "map-marked-alt",
                "Button": "btn-warning",
                "Locations": [
                    {
                        "Location": "Control #13: Manned",
                        "Type": "Control",
                        "Icon": "pencil-alt",
                        "Button": "btn-danger",
                        "Url": "https://goo.gl/maps/bbYL3gMc2FwKeN8K6"
                    },
                    {
                        "Location": "COOP (9-19)",
                        "Type": "Food",
                        "Icon": "shopping-basket",
                        "Button": "btn-success",
                        "Url": "https://goo.gl/maps/csXyf5zMWWqYnjMe8"
                    },
                    {
                        "Location": "Pizza (11-21)",
                        "Type": "Food",
                        "Icon": "pizza-slice",
                        "Button": "btn-success",
                        "Url": "https://goo.gl/maps/PLdZLPrEUnj95Q5EA"
                    },
                    {
                        "Location": "OKQ8 (7-21)",
                        "Type": "Food",
                        "Icon": "mug-hot",
                        "Button": "btn-success",
                        "Url": "https://goo.gl/maps/31wPZVeo9jmQvKMR7"
                    }
                ]
            },
            {
                "City": "ÄLVDALEN",
                "Distance": "1212",
                "Url": "https://goo.gl/maps/t4SL2TpkjEGnSDPD7",
                "Icon": "map-marked-alt",
                "Button": "btn-warning",
                "Locations": [
                    {
                        "Location": "Control #14: Anywhere",
                        "Type": "Control",
                        "Icon": "pencil-alt",
                        "Button": "btn-danger",
                        "Url": "https://goo.gl/maps/t4SL2TpkjEGnSDPD7"
                    },
                    {
                        "Location": "Älvdalens Camping",
                        "Type": "Hotel",
                        "Icon": "bed",
                        "Button": "btn-primary",
                        "Url": "https://www.alvdalencamping.se/"
                    },
                    {
                        "Location": "ICA (8-21)",
                        "Type": "Food",
                        "Icon": "shopping-basket",
                        "Button": "btn-success",
                        "Url": "https://goo.gl/maps/aTPaaUDP54QxVKbr7"
                    },
                    {
                        "Location": "Pizza (11-21)",
                        "Type": "Food",
                        "Icon": "pizza-slice",
                        "Button": "btn-success",
                        "Url": "https://goo.gl/maps/bTFBo7csCstPAnc7A"
                    }
                ]
            }
        ]
    },
    {
        "DayNum": "5",
        "DayDate": "2022-07-27",
        "DayName": "Wednesday",
        "Cities": [
            {
                "City": "MORA",
                "Distance": "1252",
                "Url": "https://goo.gl/maps/cNcUfjz8FKh1htYS7",
                "Icon": "map-marked-alt",
                "Button": "btn-warning",
                "Locations": [
                    {
                        "Location": "ICA (7-22)",
                        "Type": "Food",
                        "Icon": "shopping-basket",
                        "Button": "btn-success",
                        "Url": "https://goo.gl/maps/wog1K9Z8YDBtjrqLA"
                    },
                    {
                        "Location": "Pizzeria Torino (11-22)",
                        "Type": "Food",
                        "Icon": "pizza-slice",
                        "Button": "btn-success",
                        "Url": "https://g.page/pizzeriatorinooo?share"
                    },
                    {
                        "Location": "OKQ8 (6:30-22)",
                        "Type": "Food",
                        "Icon": "mug-hot",
                        "Button": "btn-success",
                        "Url": "https://goo.gl/maps/Dzw93dspp5MMWmAf7"
                    }
                ]
            },
            {
                "City": "LEKSAND",
                "Distance": "1309",
                "Url": "https://goo.gl/maps/z5rdgCHm4B4xaWVn6",
                "Icon": "map-marked-alt",
                "Button": "btn-warning",
                "Locations": [
                    {
                        "Location": "Control #15: Manned",
                        "Type": "Control",
                        "Icon": "pencil-alt",
                        "Button": "btn-danger",
                        "Url": "https://goo.gl/maps/z5rdgCHm4B4xaWVn6"
                    },
                    {
                        "Location": "COOP (8-22)",
                        "Type": "Food",
                        "Icon": "shopping-basket",
                        "Button": "btn-success",
                        "Url": "https://goo.gl/maps/fp4YgUeE89pDANnf7"
                    },
                    {
                        "Location": "Fred's Burgers (16-22)",
                        "Type": "Food",
                        "Icon": "hamburger",
                        "Button": "btn-success",
                        "Url": "https://g.page/FredsBurgerLeksand?share"
                    }
                ]
            },
            {
                "City": "TORSÅNG",
                "Distance": "1369",
                "Url": "https://goo.gl/maps/YZkbyzjvrDAtxeEw5",
                "Icon": "map-marked-alt",
                "Button": "btn-warning",
                "Locations": [
                    {
                        "Location": "Control #16: Anywhere",
                        "Type": "Control",
                        "Icon": "pencil-alt",
                        "Button": "btn-danger",
                        "Url": "https://goo.gl/maps/YZkbyzjvrDAtxeEw5"
                    },
                    {
                        "Location": "Torsång Pizzeria (11-21)",
                        "Type": "Food",
                        "Icon": "pizza-slice",
                        "Button": "btn-success",
                        "Url": "https://goo.gl/maps/BQuvQ6TzToPG4rPm6"
                    },
                    {
                        "Location": "Torsång Café (9-16)",
                        "Type": "Food",
                        "Icon": "mug-hot",
                        "Button": "btn-success",
                        "Url": "https://goo.gl/maps/ZZvTxCFsKgrENNA8A"
                    }
                ]
            },

            {
                "City": "AVESTA",
                "Distance": "1428",
                "Url": "https://goo.gl/maps/99Ch42LcZPopv1t7A",
                "Icon": "map-marked-alt",
                "Button": "btn-warning",
                "Locations": [
                    {
                        "Location": "Control #17: Manned",
                        "Type": "Control",
                        "Icon": "pencil-alt",
                        "Button": "btn-danger",
                        "Url": "https://goo.gl/maps/99Ch42LcZPopv1t7A"
                    },
                    {
                        "Location": "ICA (6:30-23)",
                        "Type": "Food",
                        "Icon": "shopping-basket",
                        "Button": "btn-success",
                        "Url": "https://goo.gl/maps/CaJvA7kGBcQGLLub7"
                    },
                    {
                        "Location": "Pizza (11-22)",
                        "Type": "Food",
                        "Icon": "pizza-slice",
                        "Button": "btn-success",
                        "Url": "https://goo.gl/maps/Yvn5YbXyzgMmR7xn8"
                    },
                    {
                        "Location": "Sibylla(10-21)",
                        "Type": "Food",
                        "Icon": "hamburger",
                        "Button": "btn-success",
                        "Url": "https://goo.gl/maps/75UUzQm5mYSM6U586"
                    }
                ]
            },
            {
                "City": "HEBY",
                "Distance": "1490",
                "Url": "https://goo.gl/maps/VwuxAALyNJ1xup6v9",
                "Icon": "map-marked-alt",
                "Button": "btn-warning",
                "Locations": [
                    {
                        "Location": "COOP (8-19)",
                        "Type": "Food",
                        "Icon": "shopping-basket",
                        "Button": "btn-success",
                        "Url": "https://goo.gl/maps/VRD3JiSey2GPTFpH7"
                    }
                ]
            },

            {
                "City": "UPPSALA",
                "Distance": "1549",
                "Url": "https://goo.gl/maps/dzmBWF341R9Ps4fS9",
                "Icon": "map-marked-alt",
                "Button": "btn-warning",
                "Locations": [
                    {
                        "Location": "Control #18: Manned",
                        "Type": "Control",
                        "Icon": "pencil-alt",
                        "Button": "btn-danger",
                        "Url": "https://goo.gl/maps/dzmBWF341R9Ps4fS9"
                    },
                    {
                        "Location": "City Stay",
                        "Type": "Hotel",
                        "Icon": "bed",
                        "Button": "btn-primary",
                        "Url": "http://citystayuppsala.se/en/"
                    }
                ]
            }
        ]
    }
]
